Lab 5
…
## # A tibble: 3 x 2
##   frame  mean.glyhb
##   <fct>       <dbl>
## 1 large        1.75
## 2 medium       1.67
## 3 small        1.58

#diabetes_clean <- na.omit(diabetes_clean$frame)

Note: Your glyhb_star might have different values than mine and thats ok.

library(dplyr)
diabetes_clean %>% group_by(weight) %>% summarise(mean.glyhb = mean(glyhb_star))

## # A tibble: 137 x 2
##    weight mean.glyhb
##     <int>      <dbl>
##  1     99       1.46
##  2    102       1.49
##  3    105       1.46
##  4    109       1.54
##  5    110       1.58
##  6    113       1.53
##  7    114       1.35
##  8    115       1.34
##  9    118       1.40
## 10    119       1.47
## # ... with 127 more rows

diabetes_clean %>% group_by(height) %>% summarise(mean.glyhb = mean(glyhb_star))

## # A tibble: 21 x 2
##    height mean.glyhb
##     <int>      <dbl>
##  1     52       1.45
##  2     55       1.57
##  3     58       1.58
##  4     59       1.85
##  5     60       1.74
##  6     61       1.68
##  7     62       1.66
##  8     63       1.66
##  9     64       1.54
## 10     65       1.66
## # ... with 11 more rows
…
